%YAML 1.1
%TAG !u! tag:unity3d.com,2011:
--- !u!1045 &1
EditorBuildSettings:
  m_ObjectHideFlags: 0
  serializedVersion: 2
  m_Scenes:
  - enabled: 1
    path: Assets/NinjaTraining/Scenes/StartScene.unity
    guid: a962dc86034ece345b6a049b946216d7
  - enabled: 1
    path: Assets/NinjaTraining/Scenes/GameScene.unity
    guid: 5424901c94c58734a82198f2b6e05f86
  m_configObjects: {}
